…
# Q2: Calculate Deltas for each person
Deltas <- Base %>%
  group_by(pidp) %>%
  # Sum of absolute change: (n2 - n1) + (n3 - n1) ... etc.
  mutate(Delta = sum(abs(vote6 - lag(vote6)), na.rm = TRUE)) 

# For the next questions, the table was simplified to only show Wave 1 ("a") rows. This further answers Q2 more neatly.
DAnalysis <- Deltas %>%
  filter(wave == "a")
DAnalysis
```

    ## # A tibble: 14,820 x 8
    ## # Groups:   pidp [14,820]
    ##        pidp wave  age_dv memorig sex_dv vote6 NumberWave Delta
    ##       <int> <chr>  <int>   <int> <chr>  <dbl>      <int> <dbl>
    ##  1 68004087 a         59       1 male       2          7     2
    ##  2 68006127 a         39       1 female     4          7     0
    ##  3 68006807 a         72       1 female     4          7     1
    ##  4 68008847 a         51       1 female     2          7     6
    ##  5 68009527 a         31       1 male       2          7     2
    ##  6 68010887 a         45       1 female     2          7     6
    ##  7 68020407 a         72       1 female     3          7     4
    ##  8 68025847 a         73       1 female     4          7     8
    ##  9 68029927 a         36       1 female     2          7     5
    ## 10 68031967 a         61       1 female     4          7     4
    ## # ... with 14,810 more rows
…
On average, both men and women have a similar amount of political volitility, with men being slightly more volatile than women. On average, respondents over the course of 7 waves will change their political interest by a net absolute sum of approximately 2.5.

``` r
# Calculate Mean by age (at wave 1)
DAgeMean <- DAnalysis %>%
      group_by(age_dv) %>%
      summarise(mean = mean(Delta))
DAgeMean
```

    ## # A tibble: 78 x 2
    ##    age_dv  mean
    ##     <int> <dbl>
    ##  1     15  2   
    ##  2     16  2.78
    ##  3     17  2.55
    ##  4     18  2.83
    ##  5     19  2.82
    ##  6     20  2.39
    ##  7     21  3.08
    ##  8     22  2.59
    ##  9     23  2.42
    ## 10     24  2.15
    ## # ... with 68 more rows
…
